Analyzing /r/rupaulsdragrace
…
data(stop_words)
tidy_rpdr <- rbind(tidy_title,tidy_text) %>% anti_join(stop_words)

3. Most Mentioned Queen

With the words unnested, it is easy to generate a table that summarizes the most frequently used words. To no surprise, words like “season” and “episode” are the most used in a community created to discuss a TV show. Single digits also appear, likely indicating reference to a season or episode number.

count_table <- tidy_rpdr %>% group_by(word) %>% count() %>% arrange(desc(n))

count_table

## # A tibble: 74,326 × 2
##       word     n
##      <chr> <int>
## 1   season 25860
## 2   queens 18391
## 3     drag 17984
## 4  episode 11775
## 5    queen 11709
## 6        3  8782
## 7        2  8710
## 8     race  7482
## 9     time  7144
## 10  alaska  6537
## # ... with 74,316 more rows
…
queens <-htmltab(doc="https://en.wikipedia.org/wiki/List_of_RuPaul%27s_Drag_Race_contestants")

queens <- queens %>% mutate(name=`Drag Name`) %>% select(name,Season)

queens$name <- queens$name %>% tolower() %>% 
              sapply(joinwords) %>% word(1)

The count table containing queen’s names is finalized by doing a right sided merge between count_table and queens. Alaska, the winner of the recent All Stars Season 2 and Season 5 runner up, is the most mentioned queen in the history of the subreddit. Using ggplot2, I can generate a graph to better visualize the information.

queens_count<-right_join(count_table,queens,by="word") %>%              
             arrange(desc(n))
queens_count

## # A tibble: 115 × 3
##      word     n Season
##     <chr> <int>  <chr>
## 1  alaska  6537      5
## 2   katya  6463      7
## 3   adore  4614      6
## 4  bianca  4360      6
## 5  violet  4099      7
## 6   pearl  3917      7
## 7  alyssa  3901      5
## 8  trixie  3701      7
## 9  willam  3686      4
## 10 sharon  3115      4
## # ... with 105 more rows
…
